{
  "formatVersion": 1,
  "database": {
    "version": 1,
    "identityHash": "eaf3d7da06ab69521463475e611b0f0c",
    "entities": [
      {
        "tableName": "event",
        "createSql": "CREATE TABLE IF NOT EXISTS `${TABLE_NAME}` (`event_id` INTEGER PRIMARY KEY AUTOINCREMENT NOT NULL, `event_title` TEXT, `event_description` TEXT, `event_date` TEXT, `event_image` TEXT, `event_city` TEXT)",
        "fields": [
          {
            "fieldPath": "id",
            "columnName": "event_id",
            "affinity": "INTEGER",
            "notNull": true
          },
          {
            "fieldPath": "title",
            "columnName": "event_title",
            "affinity": "TEXT",
            "notNull": false
          },
          {
            "fieldPath": "description",
            "columnName": "event_description",
            "affinity": "TEXT",
            "notNull": false
          },
          {
            "fieldPath": "date",
            "columnName": "event_date",
            "affinity": "TEXT",
            "notNull": false
          },
          {
            "fieldPath": "imageResource",
            "columnName": "event_image",
            "affinity": "TEXT",
            "notNull": false
          },
          {
            "fieldPath": "city",
            "columnName": "event_city",
            "affinity": "TEXT",
            "notNull": false
          }
        ],
        "primaryKey": {
          "columnNames": [
            "event_id"
          ],
          "autoGenerate": true
        },
        "indices": [],
        "foreignKeys": []
      },
      {
        "tableName": "user",
        "createSql": "CREATE TABLE IF NOT EXISTS `${TABLE_NAME}` (`user_id` INTEGER PRIMARY KEY AUTOINCREMENT NOT NULL, `user_name` TEXT, `user_surname` TEXT, `user_email` TEXT, `user_psw` TEXT, `user_image` TEXT, `user_like` TEXT, `user_partecipation` TEXT)",
        "fields": [
          {
            "fieldPath": "id",
            "columnName": "user_id",
            "affinity": "INTEGER",
            "notNull": true
          },
          {
            "fieldPath": "name",
            "columnName": "user_name",
            "affinity": "TEXT",
            "notNull": false
          },
          {
            "fieldPath": "surname",
            "columnName": "user_surname",
            "affinity": "TEXT",
            "notNull": false
          },
          {
            "fieldPath": "email",
            "columnName": "user_email",
            "affinity": "TEXT",
            "notNull": false
          },
          {
            "fieldPath": "password",
            "columnName": "user_psw",
            "affinity": "TEXT",
            "notNull": false
          },
          {
            "fieldPath": "imageResource",
            "columnName": "user_image",
            "affinity": "TEXT",
            "notNull": false
          },
          {
            "fieldPath": "like",
            "columnName": "user_like",
            "affinity": "TEXT",
            "notNull": false
          },
          {
            "fieldPath": "partecipation",
            "columnName": "user_partecipation",
            "affinity": "TEXT",
            "notNull": false
          }
        ],
        "primaryKey": {
          "columnNames": [
            "user_id"
          ],
          "autoGenerate": true
        },
        "indices": [],
        "foreignKeys": []
      }
    ],
    "views": [],
    "setupQueries": [
      "CREATE TABLE IF NOT EXISTS room_master_table (id INTEGER PRIMARY KEY,identity_hash TEXT)",
      "INSERT OR REPLACE INTO room_master_table (id,identity_hash) VALUES(42, 'eaf3d7da06ab69521463475e611b0f0c')"
    ]
  }
}